\relax 
\select@language{english}
\@writefile{toc}{\select@language{english}}
\@writefile{lof}{\select@language{english}}
\@writefile{lot}{\select@language{english}}
\newlabel{index::doc}{{}{}}
\newlabel{index:introduction}{{}{}}
\newlabel{index:overview}{{}{}}
\newlabel{index:hd-plugin-for-the-jw-player}{{}{}}
\newlabel{index:examples}{{}{}}
\newlabel{index:basic-setup}{{}{}}
\newlabel{index:rtmp-stream-with-fullscreen-toggle}{{}{}}
\newlabel{index:playlist-with-hd-disabled-by-default}{{}{}}
\newlabel{index:configuration}{{}{}}
\newlabel{index:using-playlists}{{}{}}
\newlabel{index:skinning}{{}{}}
\newlabel{index:example-xml}{{}{}}
\newlabel{index:configuration-options}{{}{}}
