\relax 
\ifx\hyper@anchor\@undefined
\global \let \oldcontentsline\contentsline
\gdef \contentsline#1#2#3#4{\oldcontentsline{#1}{#2}{#3}}
\global \let \oldnewlabel\newlabel
\gdef \newlabel#1#2{\newlabelxx{#1}#2}
\gdef \newlabelxx#1#2#3#4#5#6{\oldnewlabel{#1}{{#2}{#3}}}
\AtEndDocument{\let \contentsline\oldcontentsline
\let \newlabel\oldnewlabel}
\else
\global \let \hyper@last\relax 
\fi

\select@language{english}
\@writefile{toc}{\select@language{english}}
\@writefile{lof}{\select@language{english}}
\@writefile{lot}{\select@language{english}}
\newlabel{index::doc}{{}{1}{\relax }{section*.2}{}}
\@writefile{toc}{\contentsline {chapter}{\numberline {1}Introduction}{1}{chapter.1}}
\@writefile{lof}{\addvspace {10\p@ }}
\@writefile{lot}{\addvspace {10\p@ }}
\newlabel{index:introduction}{{1}{1}{Introduction\relax }{chapter.1}{}}
\newlabel{index:overview}{{1}{1}{Introduction\relax }{chapter.1}{}}
\newlabel{index:hd-plugin-for-the-jw-player}{{1}{1}{Introduction\relax }{chapter.1}{}}
\@writefile{toc}{\contentsline {chapter}{\numberline {2}Examples}{3}{chapter.2}}
\@writefile{lof}{\addvspace {10\p@ }}
\@writefile{lot}{\addvspace {10\p@ }}
\newlabel{index:examples}{{2}{3}{Examples\relax }{chapter.2}{}}
\@writefile{toc}{\contentsline {section}{\numberline {2.1}Basic Setup}{3}{section.2.1}}
\newlabel{index:basic-setup}{{2.1}{3}{Basic Setup\relax }{section.2.1}{}}
\@writefile{toc}{\contentsline {section}{\numberline {2.2}RTMP Stream with Fullscreen Toggle}{4}{section.2.2}}
\newlabel{index:rtmp-stream-with-fullscreen-toggle}{{2.2}{4}{RTMP Stream with Fullscreen Toggle\relax }{section.2.2}{}}
\@writefile{toc}{\contentsline {section}{\numberline {2.3}Playlist with HD Disabled by Default}{4}{section.2.3}}
\newlabel{index:playlist-with-hd-disabled-by-default}{{2.3}{4}{Playlist with HD Disabled by Default\relax }{section.2.3}{}}
\@writefile{toc}{\contentsline {chapter}{\numberline {3}Configuration}{7}{chapter.3}}
\@writefile{lof}{\addvspace {10\p@ }}
\@writefile{lot}{\addvspace {10\p@ }}
\newlabel{index:configuration}{{3}{7}{Configuration\relax }{chapter.3}{}}
\@writefile{toc}{\contentsline {section}{\numberline {3.1}Using Playlists}{7}{section.3.1}}
\newlabel{index:using-playlists}{{3.1}{7}{Using Playlists\relax }{section.3.1}{}}
\@writefile{toc}{\contentsline {section}{\numberline {3.2}Skinning}{8}{section.3.2}}
\newlabel{index:skinning}{{3.2}{8}{Skinning\relax }{section.3.2}{}}
\@writefile{toc}{\contentsline {subsection}{\numberline {3.2.1}Example XML}{8}{subsection.3.2.1}}
\newlabel{index:example-xml}{{3.2.1}{8}{Example XML\relax }{subsection.3.2.1}{}}
\@writefile{toc}{\contentsline {subsection}{\numberline {3.2.2}Configuration Options}{8}{subsection.3.2.2}}
\newlabel{index:configuration-options}{{3.2.2}{8}{Configuration Options\relax }{subsection.3.2.2}{}}
